…
### Explore

  - See the `Environment` pane.
  - What did R return after each dataset was read?

<!-- end list -->

``` r
schema
```

    ## # A tibble: 85 x 2
    ##    Column        QuestionText                                              
    ##    <chr>         <chr>                                                     
    ##  1 Respondent    Randomized respondent ID number (not in order of survey r…
    ##  2 MainBranch    "Which of the following options best describes you today?…
    ##  3 Hobbyist      Do you code as a hobby?                                   
    ##  4 OpenSourcer   How often do you contribute to open source?               
    ##  5 OpenSource    How do you feel about the quality of open source software…
    ##  6 Employment    Which of the following best describes your current employ…
    ##  7 Country       In which country do you currently reside?                 
    ##  8 Student       Are you currently enrolled in a formal, degree-granting c…
    ##  9 EdLevel       Which of the following best describes the highest level o…
    ## 10 UndergradMaj… What was your main or most important field of study?      
    ## # … with 75 more rows
…
## Building blocks

### Select columns

``` r
df %>% 
   select(Employment, Country)
```

    ## # A tibble: 88,883 x 2
    ##    Employment                                         Country              
    ##    <chr>                                              <chr>                
    ##  1 Not employed, and not looking for work             United Kingdom       
    ##  2 Not employed, but looking for work                 Bosnia and Herzegovi…
    ##  3 Employed full-time                                 Thailand             
    ##  4 Employed full-time                                 United States        
    ##  5 Employed full-time                                 Ukraine              
    ##  6 Employed full-time                                 Canada               
    ##  7 Independent contractor, freelancer, or self-emplo… Ukraine              
    ##  8 Not employed, but looking for work                 India                
    ##  9 Employed full-time                                 New Zealand          
    ## 10 Employed full-time                                 India                
    ## # … with 88,873 more rows

``` r
df %>% 
   select(-Respondent)
```

    ## # A tibble: 88,883 x 84
    ##    MainBranch Hobbyist OpenSourcer OpenSource Employment Country Student
    ##    <chr>      <chr>    <chr>       <chr>      <chr>      <chr>   <chr>  
    ##  1 I am a st… Yes      Never       The quali… Not emplo… United… No     
    ##  2 I am a st… No       Less than … The quali… Not emplo… Bosnia… Yes, f…
    ##  3 I am not … Yes      Never       The quali… Employed … Thaila… No     
    ##  4 I am a de… No       Never       The quali… Employed … United… No     
    ##  5 I am a de… Yes      Once a mon… OSS is, o… Employed … Ukraine No     
    ##  6 I am not … Yes      Never       The quali… Employed … Canada  No     
    ##  7 I am a de… No       Never       The quali… Independe… Ukraine No     
    ##  8 I code pr… Yes      Less than … OSS is, o… Not emplo… India   <NA>   
    ##  9 I am a de… Yes      Once a mon… The quali… Employed … New Ze… No     
    ## 10 I am a de… Yes      Once a mon… OSS is, o… Employed … India   No     
    ## # … with 88,873 more rows, and 77 more variables: EdLevel <chr>,
    ## #   UndergradMajor <chr>, EduOther <chr>, OrgSize <chr>, DevType <chr>,
    ## #   YearsCode <chr>, Age1stCode <chr>, YearsCodePro <chr>,
    ## #   CareerSat <chr>, JobSat <chr>, MgrIdiot <chr>, MgrMoney <chr>,
    ## #   MgrWant <chr>, JobSeek <chr>, LastHireDate <chr>, LastInt <chr>,
    ## #   FizzBuzz <chr>, JobFactors <chr>, ResumeUpdate <chr>,
    ## #   CurrencySymbol <chr>, CurrencyDesc <chr>, CompTotal <dbl>,
    ## #   CompFreq <chr>, ConvertedComp <dbl>, WorkWeekHrs <dbl>,
    ## #   WorkPlan <chr>, WorkChallenge <chr>, WorkRemote <chr>, WorkLoc <chr>,
…
### Filter rows

``` r
df %>% 
   filter(Employment == "Not employed, but looking for work")
```

    ## # A tibble: 5,600 x 85
    ##    Respondent MainBranch Hobbyist OpenSourcer OpenSource Employment Country
    ##         <dbl> <chr>      <chr>    <chr>       <chr>      <chr>      <chr>  
    ##  1          2 I am a st… No       Less than … The quali… Not emplo… Bosnia…
    ##  2          8 I code pr… Yes      Less than … OSS is, o… Not emplo… India  
    ##  3         15 I am a st… Yes      Never       OSS is, o… Not emplo… India  
    ##  4         27 I used to… Yes      Less than … OSS is, o… Not emplo… Colomb…
    ##  5         34 I am a st… Yes      Never       OSS is, o… Not emplo… Sri La…
    ##  6        103 I code pr… Yes      Less than … The quali… Not emplo… Russia…
    ##  7        133 I code pr… Yes      Once a mon… The quali… Not emplo… United…
    ##  8        171 I am a st… Yes      Less than … OSS is, o… Not emplo… Bangla…
    ##  9        175 I am a st… Yes      Less than … OSS is, o… Not emplo… Greece 
    ## 10        180 I used to… Yes      Never       OSS is, o… Not emplo… Italy  
    ## # … with 5,590 more rows, and 78 more variables: Student <chr>,
    ## #   EdLevel <chr>, UndergradMajor <chr>, EduOther <chr>, OrgSize <chr>,
    ## #   DevType <chr>, YearsCode <chr>, Age1stCode <chr>, YearsCodePro <chr>,
    ## #   CareerSat <chr>, JobSat <chr>, MgrIdiot <chr>, MgrMoney <chr>,
    ## #   MgrWant <chr>, JobSeek <chr>, LastHireDate <chr>, LastInt <chr>,
    ## #   FizzBuzz <chr>, JobFactors <chr>, ResumeUpdate <chr>,
    ## #   CurrencySymbol <chr>, CurrencyDesc <chr>, CompTotal <dbl>,
    ## #   CompFreq <chr>, ConvertedComp <dbl>, WorkWeekHrs <dbl>,
    ## #   WorkPlan <chr>, WorkChallenge <chr>, WorkRemote <chr>, WorkLoc <chr>,
…
``` r
df %>% 
   filter(Employment != "Not employed, but looking for work")
```

    ## # A tibble: 81,581 x 85
    ##    Respondent MainBranch Hobbyist OpenSourcer OpenSource Employment Country
    ##         <dbl> <chr>      <chr>    <chr>       <chr>      <chr>      <chr>  
    ##  1          1 I am a st… Yes      Never       The quali… Not emplo… United…
    ##  2          3 I am not … Yes      Never       The quali… Employed … Thaila…
    ##  3          4 I am a de… No       Never       The quali… Employed … United…
    ##  4          5 I am a de… Yes      Once a mon… OSS is, o… Employed … Ukraine
    ##  5          6 I am not … Yes      Never       The quali… Employed … Canada 
    ##  6          7 I am a de… No       Never       The quali… Independe… Ukraine
    ##  7          9 I am a de… Yes      Once a mon… The quali… Employed … New Ze…
    ##  8         10 I am a de… Yes      Once a mon… OSS is, o… Employed … India  
    ##  9         12 I am a st… No       Never       OSS is, o… Employed … Canada 
    ## 10         13 I am a de… Yes      Less than … OSS is, o… Employed … United…
    ## # … with 81,571 more rows, and 78 more variables: Student <chr>,
    ## #   EdLevel <chr>, UndergradMajor <chr>, EduOther <chr>, OrgSize <chr>,
    ## #   DevType <chr>, YearsCode <chr>, Age1stCode <chr>, YearsCodePro <chr>,
    ## #   CareerSat <chr>, JobSat <chr>, MgrIdiot <chr>, MgrMoney <chr>,
    ## #   MgrWant <chr>, JobSeek <chr>, LastHireDate <chr>, LastInt <chr>,
    ## #   FizzBuzz <chr>, JobFactors <chr>, ResumeUpdate <chr>,
    ## #   CurrencySymbol <chr>, CurrencyDesc <chr>, CompTotal <dbl>,
    ## #   CompFreq <chr>, ConvertedComp <dbl>, WorkWeekHrs <dbl>,
    ## #   WorkPlan <chr>, WorkChallenge <chr>, WorkRemote <chr>, WorkLoc <chr>,
…
``` r
df %>% 
   count(Employment, Country)
```

    ## # A tibble: 905 x 3
    ##    Employment Country                 n
    ##    <chr>      <chr>               <int>
    ##  1 <NA>       <NA>                   28
    ##  2 <NA>       Afghanistan             6
    ##  3 <NA>       Algeria                12
    ##  4 <NA>       Antigua and Barbuda     2
    ##  5 <NA>       Argentina               7
    ##  6 <NA>       Armenia                 1
    ##  7 <NA>       Australia              34
    ##  8 <NA>       Austria                20
    ##  9 <NA>       Azerbaijan              4
    ## 10 <NA>       Bahamas                 1
    ## # … with 895 more rows

``` r
df %>% 
   drop_na() %>% 
   count(Employment, Country)
```

    ## # A tibble: 141 x 3
    ##    Employment         Country        n
    ##    <chr>              <chr>      <int>
    ##  1 Employed full-time Albania        3
    ##  2 Employed full-time Algeria        1
    ##  3 Employed full-time Argentina     15
    ##  4 Employed full-time Armenia        2
    ##  5 Employed full-time Australia     94
    ##  6 Employed full-time Austria       16
    ##  7 Employed full-time Bangladesh     8
    ##  8 Employed full-time Belarus        2
    ##  9 Employed full-time Belgium       34
    ## 10 Employed full-time Bolivia        2
    ## # … with 131 more rows
…
### Add/change variables

``` r
df %>% 
   select(WorkWeekHrs) %>% 
   mutate(work_week = WorkWeekHrs / (24 * 7))
```

    ## # A tibble: 88,883 x 2
    ##    WorkWeekHrs work_week
    ##          <dbl>     <dbl>
    ##  1          NA   NA     
    ##  2          NA   NA     
    ##  3          40    0.238 
    ##  4          80    0.476 
    ##  5          55    0.327 
    ##  6          15    0.0893
    ##  7          32    0.190 
    ##  8          NA   NA     
    ##  9          32    0.190 
    ## 10          70    0.417 
    ## # … with 88,873 more rows

### Summarise

Similar to mutate, but collapses results

``` r
df %>% 
   group_by(Country) %>% 
   summarise(hrs = mean(WorkWeekHrs))
```

    ## # A tibble: 180 x 2
    ##    Country               hrs
    ##    <chr>               <dbl>
    ##  1 <NA>                   NA
    ##  2 Afghanistan            NA
    ##  3 Albania                NA
    ##  4 Algeria                NA
    ##  5 Andorra                NA
    ##  6 Angola                 NA
    ##  7 Antigua and Barbuda    NA
    ##  8 Argentina              NA
    ##  9 Armenia                NA
    ## 10 Australia              NA
    ## # … with 170 more rows

``` r
df %>% 
   drop_na(Country, WorkWeekHrs) %>% 
   group_by(Country) %>% 
   summarise(hrs = mean(WorkWeekHrs))
```

    ## # A tibble: 168 x 2
    ##    Country               hrs
    ##    <chr>               <dbl>
    ##  1 Afghanistan          55.4
    ##  2 Albania              40.1
    ##  3 Algeria              38.2
    ##  4 Andorra              42  
    ##  5 Angola               45  
    ##  6 Antigua and Barbuda  40  
    ##  7 Argentina            37.0
    ##  8 Armenia              41.2
    ##  9 Australia            40.1
    ## 10 Austria              63.7
    ## # … with 158 more rows

``` r
df %>% 
   drop_na(Country, WorkWeekHrs) %>% 
   group_by(Country) %>% 
   summarise(hrs = mean(WorkWeekHrs)) %>% 
   arrange(desc(hrs))
```

    ## # A tibble: 168 x 2
    ##    Country        hrs
    ##    <chr>        <dbl>
    ##  1 Finland       82.8
    ##  2 Norway        76.4
    ##  3 Burundi       68  
    ##  4 Sierra Leone  65  
    ##  5 Austria       63.7
    ##  6 Mali          57.5
    ##  7 Afghanistan   55.4
    ##  8 Turkmenistan  52.3
    ##  9 Oman          50  
    ## 10 Seychelles    50  
    ## # … with 158 more rows

``` r
df %>% 
   drop_na(Country, WorkWeekHrs) %>% 
   group_by(Country) %>% 
   summarise(hrs = mean(WorkWeekHrs),
             n = n()) %>% 
   arrange(desc(hrs))
```

    ## # A tibble: 168 x 3
    ##    Country        hrs     n
    ##    <chr>        <dbl> <int>
    ##  1 Finland       82.8   416
    ##  2 Norway        76.4   451
    ##  3 Burundi       68       3
    ##  4 Sierra Leone  65       2
    ##  5 Austria       63.7   594
    ##  6 Mali          57.5     2
    ##  7 Afghanistan   55.4    17
    ##  8 Turkmenistan  52.3     3
    ##  9 Oman          50       3
    ## 10 Seychelles    50       1
    ## # … with 158 more rows

``` r
df %>% 
   drop_na(Country, WorkWeekHrs) %>% 
   group_by(Country) %>% 
   summarise(hrs = mean(WorkWeekHrs),
             n = n()) %>% 
   arrange(desc(hrs)) %>% 
   filter(n > 100)
```

    ## # A tibble: 62 x 3
    ##    Country       hrs     n
    ##    <chr>       <dbl> <int>
    ##  1 Finland      82.8   416
    ##  2 Norway       76.4   451
    ##  3 Austria      63.7   594
    ##  4 Sweden       47.0  1002
    ##  5 Iran         46.7   478
    ##  6 Switzerland  46.4   751
    ##  7 Israel       45.6   707
    ##  8 Sri Lanka    45.4   212
    ##  9 Slovakia     44.8   172
    ## 10 Poland       44.6  1488
    ## # … with 52 more rows
…
